%YAML 1.1
%TAG !u! tag:unity3d.com,2011:
--- !u!54 &271211707
Rigidbody:
  m_ObjectHideFlags: 0
  m_CorrespondingSourceObject: {fileID: 0}
  m_PrefabInstance: {fileID: 0}
  m_PrefabAsset: {fileID: 0}
  m_GameObject: {fileID: 6086023391386988161}
  serializedVersion: 2
  m_Mass: 1
  m_Drag: 0
  m_AngularDrag: 0.05
  m_UseGravity: 0
  m_IsKinematic: 1
  m_Interpolate: 0
  m_Constraints: 112
  m_CollisionDetection: 0
--- !u!65 &271211708
BoxCollider:
  m_ObjectHideFlags: 0
  m_CorrespondingSourceObject: {fileID: 0}
  m_PrefabInstance: {fileID: 0}
  m_PrefabAsset: {fileID: 0}
  m_GameObject: {fileID: 6086023391386988161}
  m_Material: {fileID: 0}
  m_IsTrigger: 0
  m_Enabled: 1
  serializedVersion: 2
  m_Size: {x: 0.07008483, y: 0.14368327, z: 0.006549458}
  m_Center: {x: 0, y: 0, z: -0.00047165254}
--- !u!65 &271211709
BoxCollider:
  m_ObjectHideFlags: 0
  m_CorrespondingSourceObject: {fileID: 0}
  m_PrefabInstance: {fileID: 0}
  m_PrefabAsset: {fileID: 0}
  m_GameObject: {fileID: 6086023391386988161}
  m_Material: {fileID: 0}
  m_IsTrigger: 1
  m_Enabled: 1
  serializedVersion: 2
  m_Size: {x: 1, y: 1, z: 1}
  m_Center: {x: 0, y: 0, z: 0.6}
--- !u!1001 &6086023391387019297
PrefabInstance:
  m_ObjectHideFlags: 0
  serializedVersion: 2
  m_Modification:
    m_TransformParent: {fileID: 0}
    m_Modifications:
    - target: {fileID: 100000, guid: 53ee823ff543aa24d855d8f9f8c2b87b, type: 3}
      propertyPath: m_Name
      value: phone Variant
      objectReference: {fileID: 0}
    - target: {fileID: 400000, guid: 53ee823ff543aa24d855d8f9f8c2b87b, type: 3}
      propertyPath: m_RootOrder
      value: 0
      objectReference: {fileID: 0}
    - target: {fileID: 400000, guid: 53ee823ff543aa24d855d8f9f8c2b87b, type: 3}
      propertyPath: m_LocalScale.x
      value: 1.3
      objectReference: {fileID: 0}
    - target: {fileID: 400000, guid: 53ee823ff543aa24d855d8f9f8c2b87b, type: 3}
      propertyPath: m_LocalScale.y
      value: 1.3
      objectReference: {fileID: 0}
    - target: {fileID: 400000, guid: 53ee823ff543aa24d855d8f9f8c2b87b, type: 3}
      propertyPath: m_LocalScale.z
      value: 1.3
      objectReference: {fileID: 0}
    - target: {fileID: 400000, guid: 53ee823ff543aa24d855d8f9f8c2b87b, type: 3}
      propertyPath: m_LocalPosition.x
      value: 29.6
      objectReference: {fileID: 0}
    - target: {fileID: 400000, guid: 53ee823ff543aa24d855d8f9f8c2b87b, type: 3}
      propertyPath: m_LocalPosition.y
      value: 2.12
      objectReference: {fileID: 0}
    - target: {fileID: 400000, guid: 53ee823ff543aa24d855d8f9f8c2b87b, type: 3}
      propertyPath: m_LocalPosition.z
      value: -60.9
      objectReference: {fileID: 0}
    - target: {fileID: 400000, guid: 53ee823ff543aa24d855d8f9f8c2b87b, type: 3}
      propertyPath: m_LocalRotation.w
      value: 0.7071067
      objectReference: {fileID: 0}
    - target: {fileID: 400000, guid: 53ee823ff543aa24d855d8f9f8c2b87b, type: 3}
      propertyPath: m_LocalRotation.x
      value: -0.7071068
      objectReference: {fileID: 0}
    - target: {fileID: 400000, guid: 53ee823ff543aa24d855d8f9f8c2b87b, type: 3}
      propertyPath: m_LocalRotation.y
      value: 0
      objectReference: {fileID: 0}
    - target: {fileID: 400000, guid: 53ee823ff543aa24d855d8f9f8c2b87b, type: 3}
      propertyPath: m_LocalRotation.z
      value: -0
      objectReference: {fileID: 0}
    - target: {fileID: 400000, guid: 53ee823ff543aa24d855d8f9f8c2b87b, type: 3}
      propertyPath: m_LocalEulerAnglesHint.x
      value: 0
      objectReference: {fileID: 0}
    - target: {fileID: 400000, guid: 53ee823ff543aa24d855d8f9f8c2b87b, type: 3}
      propertyPath: m_LocalEulerAnglesHint.y
      value: 0
      objectReference: {fileID: 0}
    - target: {fileID: 400000, guid: 53ee823ff543aa24d855d8f9f8c2b87b, type: 3}
      propertyPath: m_LocalEulerAnglesHint.z
      value: 0
      objectReference: {fileID: 0}
    m_RemovedComponents: []
  m_SourcePrefab: {fileID: 100100000, guid: 53ee823ff543aa24d855d8f9f8c2b87b, type: 3}
--- !u!1 &6086023391386988161 stripped
GameObject:
  m_CorrespondingSourceObject: {fileID: 100000, guid: 53ee823ff543aa24d855d8f9f8c2b87b,
    type: 3}
  m_PrefabInstance: {fileID: 6086023391387019297}
  m_PrefabAsset: {fileID: 0}
--- !u!4 &6086023391386628769 stripped
Transform:
  m_CorrespondingSourceObject: {fileID: 400000, guid: 53ee823ff543aa24d855d8f9f8c2b87b,
    type: 3}
  m_PrefabInstance: {fileID: 6086023391387019297}
  m_PrefabAsset: {fileID: 0}
--- !u!1001 &6448566853776331068
PrefabInstance:
  m_ObjectHideFlags: 0
  serializedVersion: 2
  m_Modification:
    m_TransformParent: {fileID: 6086023391386628769}
    m_Modifications:
    - target: {fileID: 938800051177996379, guid: 6c7551d110a9a5b46b9aea13e581a8dc,
        type: 3}
      propertyPath: m_LocalPosition.x
      value: 0
      objectReference: {fileID: 0}
    - target: {fileID: 938800051177996379, guid: 6c7551d110a9a5b46b9aea13e581a8dc,
        type: 3}
      propertyPath: m_LocalPosition.y
      value: 0
      objectReference: {fileID: 0}
    - target: {fileID: 938800051177996379, guid: 6c7551d110a9a5b46b9aea13e581a8dc,
        type: 3}
      propertyPath: m_LocalPosition.z
      value: 0
      objectReference: {fileID: 0}
    - target: {fileID: 938800051177996379, guid: 6c7551d110a9a5b46b9aea13e581a8dc,
        type: 3}
      propertyPath: m_LocalRotation.x
      value: 0
      objectReference: {fileID: 0}
    - target: {fileID: 938800051177996379, guid: 6c7551d110a9a5b46b9aea13e581a8dc,
        type: 3}
      propertyPath: m_LocalRotation.y
      value: 0
      objectReference: {fileID: 0}
    - target: {fileID: 938800051177996379, guid: 6c7551d110a9a5b46b9aea13e581a8dc,
        type: 3}
      propertyPath: m_LocalRotation.z
      value: 0
      objectReference: {fileID: 0}
    - target: {fileID: 938800051177996379, guid: 6c7551d110a9a5b46b9aea13e581a8dc,
        type: 3}
      propertyPath: m_LocalRotation.w
      value: 1
      objectReference: {fileID: 0}
    - target: {fileID: 938800051177996379, guid: 6c7551d110a9a5b46b9aea13e581a8dc,
        type: 3}
      propertyPath: m_RootOrder
      value: 0
      objectReference: {fileID: 0}
    - target: {fileID: 938800051177996379, guid: 6c7551d110a9a5b46b9aea13e581a8dc,
        type: 3}
      propertyPath: m_LocalEulerAnglesHint.x
      value: 0
      objectReference: {fileID: 0}
    - target: {fileID: 938800051177996379, guid: 6c7551d110a9a5b46b9aea13e581a8dc,
        type: 3}
      propertyPath: m_LocalEulerAnglesHint.y
      value: 0
      objectReference: {fileID: 0}
    - target: {fileID: 938800051177996379, guid: 6c7551d110a9a5b46b9aea13e581a8dc,
        type: 3}
      propertyPath: m_LocalEulerAnglesHint.z
      value: 0
      objectReference: {fileID: 0}
    - target: {fileID: 940832501077106491, guid: 6c7551d110a9a5b46b9aea13e581a8dc,
        type: 3}
      propertyPath: m_Name
      value: CFX4 Aura Bubble C
      objectReference: {fileID: 0}
    m_RemovedComponents: []
  m_SourcePrefab: {fileID: 100100000, guid: 6c7551d110a9a5b46b9aea13e581a8dc, type: 3}
